Stroke trial modeling result
…
Construct parameter grid:

xgb_grid <- grid_latin_hypercube(
  min_n(),
  tree_depth(),
  learn_rate(),
  loss_reduction(),
  sample_size = sample_prop(),
  finalize(mtry(), ist_train),
  size = 30
)
xgb_grid

# A tibble: 30 x 6
   min_n tree_depth learn_rate loss_reduction sample_size  mtry
   <int>      <int>      <dbl>          <dbl>       <dbl> <int>
 1    32         12   1.28e- 4        2.76e-5       0.284    16
 2    22          6   9.25e- 7        5.08e-9       0.200     9
 3     9          5   1.57e-10        7.36e-5       0.948     5
 4    13         11   9.27e- 9        5.05e-2       0.392    11
 5    36         10   2.49e- 6        2.29e+0       0.465     1
 6    11          3   2.93e- 3        1.67e+1       0.107    21
 7    17          1   1.56e- 9        7.38e-7       0.353    19
 8     8          7   3.17e- 4        2.02e-5       0.707     4
 9    24         14   2.50e- 8        5.80e-6       0.524    20
10    22          7   7.74e- 6        1.06e+0       0.132    10
# ... with 20 more rows
…
ROC curve

Random forest

Compute the data needed to plot the ROC curve for random forest
model:

rf_auc <- rf_final_res %>%
  collect_predictions() %>%
  roc_curve(dead_or_dep, .pred_yes, event_level = "second") %>%
  mutate(model = "Random forest")
rf_auc

# A tibble: 460 x 4
   .threshold specificity sensitivity model        
        <dbl>       <dbl>       <dbl> <chr>        
 1  -Inf          0             1     Random forest
 2     0.0861     0             1     Random forest
 3     0.0988     0.00617       1     Random forest
 4     0.114      0.00617       0.997 Random forest
 5     0.138      0.0123        0.997 Random forest
 6     0.143      0.0185        0.997 Random forest
 7     0.148      0.0247        0.997 Random forest
 8     0.154      0.0309        0.997 Random forest
 9     0.170      0.0370        0.997 Random forest
10     0.174      0.0432        0.997 Random forest
# ... with 450 more rows

Neural network

Compute the data needed to plot the ROC curve for neural network
model:

nnet_auc <- nnet_final_res %>%
  collect_predictions() %>%
  roc_curve(dead_or_dep, .pred_yes, event_level = "second") %>%
  mutate(model = "Neural network")
nnet_auc

# A tibble: 116 x 4
   .threshold specificity sensitivity model         
        <dbl>       <dbl>       <dbl> <chr>         
 1   -Inf           0           1     Neural network
 2      0.348       0           1     Neural network
 3      0.348       0.327       0.916 Neural network
 4      0.348       0.333       0.916 Neural network
 5      0.348       0.340       0.916 Neural network
 6      0.348       0.340       0.912 Neural network
 7      0.348       0.340       0.909 Neural network
 8      0.348       0.346       0.909 Neural network
 9      0.348       0.352       0.909 Neural network
10      0.348       0.352       0.905 Neural network
# ... with 106 more rows

XGBoost

Compute the data needed to plot the ROC curve for xgboost model:

xgb_auc <- xgb_final_res %>%
  collect_predictions() %>%
  roc_curve(dead_or_dep, .pred_yes, event_level = "second") %>%
  mutate(model = "XGBoost")
xgb_auc

# A tibble: 460 x 4
   .threshold specificity sensitivity model  
        <dbl>       <dbl>       <dbl> <chr>  
 1   -Inf         0             1     XGBoost
 2      0.114     0             1     XGBoost
 3      0.146     0.00617       1     XGBoost
 4      0.158     0.00617       0.997 XGBoost
 5      0.162     0.0123        0.997 XGBoost
 6      0.163     0.0185        0.997 XGBoost
 7      0.168     0.0247        0.997 XGBoost
 8      0.170     0.0309        0.997 XGBoost
 9      0.185     0.0370        0.997 XGBoost
10      0.193     0.0432        0.997 XGBoost
# ... with 450 more rows
…
